stc_1.sim/sim_1/behav/xsim/smart_traffic_controller.vcd
$date
   Thu May 28 01:10:38 2026
$end

$version
  2024.1.2
  $dumpfile ("smart_traffic_controller.vcd") 
$end

$timescale
  1ps
$end

$scope module smart_traffic_controller_tb $end
$var reg 1 ! clk $end
$var reg 1 " reset $end
$var reg 2 # highway_density [1:0] $end
$var reg 2 $ side_density [1:0] $end
$var wire 3 % highway_light [2:0] $end
$var wire 3 & side_light [2:0] $end
$scope module DUT $end
$var wire 1 ' clk $end
$var wire 1 ( reset $end
$var wire 2 ) highway_density [1:0] $end
$var wire 2 * side_density [1:0] $end
$var reg 3 + highway_light [2:0] $end
$var reg 3 , side_light [2:0] $end
$var reg 2 - state [1:0] $end
$var reg 5 . timer [4:0] $end
$var reg 5 / highway_green_time [4:0] $end
$var reg 5 0 side_green_time [4:0] $end
$upscope $end
$upscope $end
$enddefinitions $end

#0
$dumpvars
0!
1"
b0 #
b0 $
b1 %
b100 &
0'
1(
b0 )
b0 *
b1 +
b100 ,
b0 -
b0 .
b101 /
b101 0
$end

#5000
1!
1'

#10000
0!
0'

#15000
1!
1'

#20000
0!
0"
0'
0(

#25000
1!
1'
b1 .

#30000
0!
0'

#35000
1!
1'
b10 .

#40000
0!
0'

#45000
1!
1'
b11 .

#50000
0!
0'

#55000
1!
1'
b100 .

#60000
0!
0'

#65000
1!
1'
b101 .

#70000
0!
0'

#75000
1!
b10 %
1'
b10 +
b1 -
b0 .

#80000
0!
0'

#85000
1!
1'
b1 .

#90000
0!
0'

#95000
1!
1'
b10 .

#100000
0!
0'

#105000
1!
b100 %
b1 &
1'
b100 +
b1 ,
b10 -
b0 .

#110000
0!
0'

#115000
1!
1'
b1 .

#120000
0!
b10 #
0'
b10 )
b1100 /

#125000
1!
1'
b10 .

#130000
0!
0'

#135000
1!
1'
b11 .

#140000
0!
0'

#145000
1!
1'
b100 .

#150000
0!
0'

#155000
1!
1'
b101 .

#160000
0!
0'

#165000
1!
b10 &
1'
b10 ,
b11 -
b0 .

#170000
0!
0'

#175000
1!
1'
b1 .

#180000
0!
0'

#185000
1!
1'
b10 .

#190000
0!
0'

#195000
1!
b1 %
b100 &
1'
b1 +
b100 ,
b0 -
b0 .

#200000
0!
0'

#205000
1!
1'
b1 .

#210000
0!
0'

#215000
1!
1'
b10 .

#220000
0!
0'

#225000
1!
1'
b11 .

#230000
0!
0'

#235000
1!
1'
b100 .

#240000
0!
0'

#245000
1!
1'
b101 .

#250000
0!
0'

#255000
1!
1'
b110 .

#260000
0!
0'

#265000
1!
1'
b111 .

#270000
0!
b0 #
b10 $
0'
b0 )
b10 *
b101 /
b1100 0

#275000
1!
b10 %
1'
b10 +
b1 -
b0 .

#280000
0!
0'

#285000
1!
1'
b1 .

#290000
0!
0'

#295000
1!
1'
b10 .

#300000
0!
0'

#305000
1!
b100 %
b1 &
1'
b100 +
b1 ,
b10 -
b0 .

#310000
0!
0'

#315000
1!
1'
b1 .

#320000
0!
0'

#325000
1!
1'
b10 .

#330000
0!
0'

#335000
1!
1'
b11 .

#340000
0!
0'

#345000
1!
1'
b100 .

#350000
0!
0'

#355000
1!
1'
b101 .

#360000
0!
0'

#365000
1!
1'
b110 .

#370000
0!
0'

#375000
1!
1'
b111 .

#380000
0!
0'

#385000
1!
1'
b1000 .

#390000
0!
0'

#395000
1!
1'
b1001 .

#400000
0!
0'

#405000
1!
1'
b1010 .

#410000
0!
0'

#415000
1!
1'
b1011 .

#420000
0!
b10 #
0'
b10 )
b1100 /

#425000
1!
1'
b1100 .

#430000
0!
0'

#435000
1!
b10 &
1'
b10 ,
b11 -
b0 .

#440000
0!
0'

#445000
1!
1'
b1 .

#450000
0!
0'

#455000
1!
1'
b10 .

#460000
0!
0'

#465000
1!
b1 %
b100 &
1'
b1 +
b100 ,
b0 -
b0 .

#470000
0!
0'

#475000
1!
1'
b1 .

#480000
0!
0'

#485000
1!
1'
b10 .

#490000
0!
0'

#495000
1!
1'
b11 .

#500000
0!
0'

#505000
1!
1'
b100 .

#510000
0!
0'

#515000
1!
1'
b101 .

#520000
0!
0'

#525000
1!
1'
b110 .

#530000
0!
0'

#535000
1!
1'
b111 .

#540000
0!
0'

#545000
1!
1'
b1000 .

#550000
0!
0'

#555000
1!
1'
b1001 .

#560000
0!
0'

#565000
1!
1'
b1010 .

#570000
0!
0'

#575000
1!
1'
b1011 .

#580000
0!
0'

#585000
1!
1'
b1100 .

#590000
0!
0'

#595000
1!
b10 %
1'
b10 +
b1 -
b0 .

#600000
0!
0'

#605000
1!
1'
b1 .

#610000
0!
0'

#615000
1!
1'
b10 .
